%!PS-Adobe-3.0 EPSF-3.0
%%Creator: cairo 1.16.0 (https://cairographics.org)
%%CreationDate: Mon Feb 26 12:20:36 2024
%%Pages: 1
%%DocumentData: Clean7Bit
%%LanguageLevel: 2
%%BoundingBox: 0 0 4252 3051
%%EndComments
%%BeginProlog
50 dict begin
/q { gsave } bind def
/Q { grestore } bind def
/cm { 6 array astore concat } bind def
/w { setlinewidth } bind def
/J { setlinecap } bind def
/j { setlinejoin } bind def
/M { setmiterlimit } bind def
/d { setdash } bind def
/m { moveto } bind def
/l { lineto } bind def
/c { curveto } bind def
/h { closepath } bind def
/re { exch dup neg 3 1 roll 5 3 roll moveto 0 rlineto
      0 exch rlineto 0 rlineto closepath } bind def
/S { stroke } bind def
/f { fill } bind def
/f* { eofill } bind def
/n { newpath } bind def
/W { clip } bind def
/W* { eoclip } bind def
/BT { } bind def
/ET { } bind def
/BDC { mark 3 1 roll /BDC pdfmark } bind def
/EMC { mark /EMC pdfmark } bind def
/cairo_store_point { /cairo_point_y exch def /cairo_point_x exch def } def
/Tj { show currentpoint cairo_store_point } bind def
/TJ {
  {
    dup
    type /stringtype eq
    { show } { -0.001 mul 0 cairo_font_matrix dtransform rmoveto } ifelse
  } forall
  currentpoint cairo_store_point
} bind def
/cairo_selectfont { cairo_font_matrix aload pop pop pop 0 0 6 array astore
    cairo_font exch selectfont cairo_point_x cairo_point_y moveto } bind def
/Tf { pop /cairo_font exch def /cairo_font_matrix where
      { pop cairo_selectfont } if } bind def
/Td { matrix translate cairo_font_matrix matrix concatmatrix dup
      /cairo_font_matrix exch def dup 4 get exch 5 get cairo_store_point
      /cairo_font where { pop cairo_selectfont } if } bind def
/Tm { 2 copy 8 2 roll 6 array astore /cairo_font_matrix exch def
      cairo_store_point /cairo_font where { pop cairo_selectfont } if } bind def
/g { setgray } bind def
/rg { setrgbcolor } bind def
/d1 { setcachedevice } bind def
/cairo_data_source {
  CairoDataIndex CairoData length lt
    { CairoData CairoDataIndex get /CairoDataIndex CairoDataIndex 1 add def }
    { () } ifelse
} def
/cairo_flush_ascii85_file { cairo_ascii85_file status { cairo_ascii85_file flushfile } if } def
/cairo_image { image cairo_flush_ascii85_file } def
/cairo_imagemask { imagemask cairo_flush_ascii85_file } def
%%EndProlog
%%BeginSetup
%%EndSetup
%%Page: 1 1
%%BeginPageSetup
%%PageBoundingBox: 0 0 4252 3051
%%EndPageSetup
q 0 0 4252 3051 rectclip
1 0 0 -1 0 3051 cm q
0.8 0 0 rg
1605.242 2274.898 m 1605.242 2274.898 928.441 2069.246 887.867 1333.121
 c 846.316 578.621 1354.668 53.922 2102.941 2.398 c 2805.469 -45.977 3167.641
 648.672 3060.691 1101.898 c 2953.742 1555.047 2569.594 1884.973 2099.941
 1835.621 c 1911.168 1815.746 1768.516 1744.348 1668.391 1642.195 c 1518.242
 1488.973 1463.492 1266.07 1493.492 1041.598 c 1530.617 763.348 1828.141
 568.121 2106.691 621.223 c 2397.094 676.57 2539.066 957.82 2403.844 1160.32
 c 2365.219 1218.148 2295.016 1262.996 2234.867 1280.172 c 2146.742 1305.371
 2062.066 1298.621 2062.066 1298.621 c 2054.344 1298.023 2048.418 1291.422
 2048.641 1283.695 c 2050.594 1208.922 l 2050.816 1201.348 2056.742 1195.195
 2064.242 1194.746 c 2064.242 1194.746 2122.594 1190.996 2183.641 1167.523
 c 2223.242 1152.297 2264.191 1128.82 2290.141 1091.996 c 2314.816 1056.82
 2312.266 1008.746 2288.719 963.746 c 2251.293 892.047 2160.918 828.598 
2033.719 829.723 c 1927.219 830.621 1845.391 869.023 1793.266 933.746 c 
1740.766 998.848 1718.418 1090.047 1729.742 1195.047 c 1752.469 1405.723
 1984.891 1592.996 2196.168 1575.523 c 2536.293 1547.32 2832.242 1360.871
 2807.719 897.445 c 2795.418 665.621 2703.316 496.422 2558.191 394.797 c
 2412.617 292.797 2214.242 258.898 1991.418 296.547 c 1767.469 334.348 1550.719
 481.195 1392.543 668.547 c 1234.668 855.523 1161.016 1058.098 1171.816 
1284.223 c 1187.719 1616.848 1304.043 1919.848 1646.266 2199.297 c 1646.266
 2199.297 1653.766 2205.07 1650.844 2215.422 c 1649.492 2220.148 1642.668
 2243.621 1642.668 2243.621 c 1642.066 2245.723 1641.016 2247.598 1639.594
 2249.246 c 1620.391 2270.773 l 1616.641 2274.898 1610.719 2276.621 1605.242
 2274.898 c h
1605.242 2274.898 m f*
0.2 0.4 0.6 rg
691.367 2840.473 m 691.367 2840.473 742.367 2629.871 1133.641 2574.973 
c 1524.992 2519.996 1731.391 2793.223 2454.617 2781.598 c 3177.766 2769.973
 3691.594 2575.648 3940.066 2578.496 c 4188.617 2581.422 4110.469 2672.996
 4081.441 2724.371 c 4052.418 2775.746 4088.418 2829.598 3893.266 2841.223
 c 3698.117 2852.773 3178.141 3045.973 2428.816 3050.773 c 1679.492 3055.57
 1350.094 2685.223 1041.691 2704.797 c 733.293 2724.371 691.367 2840.473
 691.367 2840.473 c h
691.367 2840.473 m f*
0.016 2388.82 m -0.434 2402.246 8.043 2417.695 20.418 2419.648 c 32.793
 2421.598 127.516 2288.098 302.418 2278.121 c 731.418 2253.746 912.617 2402.32
 1214.492 2409.973 c 1516.367 2417.695 1649.043 2339.172 1677.469 2312.773
 c 1705.891 2286.371 1727.191 2205.898 1707.543 2188.496 c 1687.891 2171.172
 1452.316 2274.371 1109.941 2274.371 c 767.566 2274.371 645.766 2180.996
 375.316 2180.996 c 104.867 2180.996 0.543 2375.398 0.016 2388.82 c h
0.016 2388.82 m f*
2777.492 2252.398 m 2780.793 2236.57 2901.992 2135.172 3164.266 2135.172
 c 3426.543 2135.172 3463.141 2247.672 3777.543 2224.422 c 4091.941 2201.246
 4140.391 2126.621 4209.844 2138.621 c 4279.219 2150.621 4243.969 2190.523
 4235.867 2209.047 c 4227.691 2227.57 4208.641 2261.098 4188.168 2275.273
 c 4167.691 2289.445 3993.766 2386.648 3759.316 2386.648 c 3524.867 2386.648
 3207.617 2237.848 3015.543 2237.848 c 2823.469 2237.848 2821.141 2285.098
 2798.117 2278.121 c 2775.016 2271.223 2774.191 2268.297 2777.492 2252.398
 c h
2777.492 2252.398 m f*
0 g
1908.094 2203.57 m 1908.094 2203.57 1939.742 2185.871 1967.793 2164.273
 c 1983.691 2152.047 1999.141 2139.297 2003.492 2127.672 c 2019.543 2084.773
 2071.367 2047.348 2114.418 2044.273 c 2146.891 2041.945 2174.941 2054.473
 2211.168 2081.473 c 2217.992 2060.398 2230.441 2037.746 2249.492 2013.445
 c 2292.168 1959.07 2369.566 1894.648 2491.668 1818.973 c 2695.066 1693.047
 2973.918 1693.273 2973.918 1693.273 c 2980.367 1693.273 2986.441 1696.121
 2990.492 1701.07 c 3003.316 1716.672 l 3007.816 1722.148 3009.316 1729.422
 3007.367 1736.172 c 3005.492 1742.922 3000.316 1748.398 2993.641 1750.648
 c 2993.641 1750.648 2727.918 1840.945 2621.867 1931.246 c 2522.793 2015.621
 2549.117 2132.773 2573.867 2197.496 c 2599.742 2265.07 2695.594 2360.023
 2869.516 2428.496 c 2875.441 2430.82 2879.941 2435.621 2882.043 2441.621
 c 2884.066 2447.621 2883.391 2454.148 2880.094 2459.621 c 2850.617 2508.523
 2814.242 2554.57 2781.617 2595.973 c 2777.191 2601.598 2770.141 2604.672
 2763.016 2604.07 c 2755.816 2603.473 2749.441 2599.348 2745.918 2593.121
 c 2731.668 2567.473 2697.094 2538.371 2655.918 2508.82 c 2590.066 2461.57
 2507.117 2414.848 2452.441 2383.496 c 2365.668 2333.773 2303.492 2309.473
 2201.043 2321.398 c 2102.641 2355.148 2016.766 2287.348 1997.266 2264.996
 c 1995.469 2262.898 1992.168 2261.547 1988.418 2259.973 c 1982.191 2257.273
 1974.766 2254.945 1967.191 2252.996 c 1942.594 2246.621 1916.266 2243.695
 1916.266 2243.695 c 1906.969 2242.648 1899.391 2235.746 1897.516 2226.598
 c 1895.641 2217.445 1899.992 2208.148 1908.094 2203.57 c h
1908.094 2203.57 m f*
1 g
2646.617 1793.398 m 2601.391 1809.297 2556.242 1829.547 2514.316 1855.496
 c 2398.141 1927.496 2323.891 1988.172 2283.316 2039.922 c 2259.391 2070.445
 2247.617 2096.996 2247.617 2120.695 c 2247.617 2129.023 2242.742 2136.598
 2235.242 2140.121 c 2227.668 2143.648 2218.816 2142.523 2212.367 2137.195
 c 2172.766 2104.348 2148.766 2084.848 2117.492 2087.098 c 2088.844 2089.121
 2054.418 2114.172 2043.766 2142.746 c 2038.816 2155.945 2025.844 2171.547
 2009.191 2186.023 c 1999.066 2194.797 1987.668 2203.348 1976.641 2211.07
 c 1981.891 2212.422 1987.066 2213.848 1992.016 2215.496 c 2008.742 2220.973
 2022.691 2228.621 2029.742 2236.797 c 2044.891 2254.195 2112.094 2307.672
 2188.891 2280.148 c 2190.391 2279.621 2191.969 2279.246 2193.543 2279.023
 c 2308.141 2265.148 2377.293 2290.945 2473.816 2346.223 c 2501.043 2361.82
 2535.242 2381.246 2570.941 2402.621 c 2625.094 2333.246 l 2577.094 2290.348
 2547.168 2247.898 2533.742 2212.945 c 2504.418 2136.371 2476.816 1998.371
 2593.969 1898.621 c 2614.367 1881.223 2640.469 1863.82 2669.418 1847.023
 c h
2646.617 1793.398 m f*
0.137255 0.0941176 0.0823529 rg
2119.516 2173.047 m 2115.918 2184.371 2103.844 2190.672 2092.594 2187.07
 c 2081.266 2183.547 2074.969 2171.473 2078.566 2160.148 c 2083.516 2144.473
 l 2087.117 2133.148 2099.191 2126.848 2110.516 2130.445 c 2121.844 2134.047
 2128.141 2146.047 2124.543 2157.371 c h
2119.516 2173.047 m f*
Q Q
showpage
%%Trailer
end
%%EOF
